{"players":[{"shots_count":1,"twitter_screen_name":"kevin","avatar_url":"http://dribbble.com/system/users/3997/avatars/thumb/n202012_5870.jpg?1281657667","name":"Kevin Systrom","created_at":"2010/08/07 04:15:31 -0400","location":"San Francisco","following_count":6,"url":"http://dribbble.com/players/systrom","draftees_count":0,"id":3997,"drafted_by_player_id":1997,"followers_count":4},{"shots_count":1,"twitter_screen_name":"http://twitter.com/preist","avatar_url":"http://dribbble.com/system/users/4093/avatars/thumb/Screen_shot_2010-08-13_at_12.02.08_AM.png?1281646949","name":"Igor","created_at":"2010/08/12 10:57:40 -0400","location":"Planet Earth","following_count":10,"url":"http://dribbble.com/players/preist","draftees_count":0,"id":4093,"drafted_by_player_id":98,"followers_count":3},{"shots_count":1,"twitter_screen_name":"darkwark","avatar_url":"http://dribbble.com/system/users/4101/avatars/thumb/Kamil.jpeg?1281643625","name":"Kamil Khadeyev","created_at":"2010/08/12 16:06:25 -0400","location":"Russia, Kazan","following_count":8,"url":"http://dribbble.com/players/darkwark","draftees_count":0,"id":4101,"drafted_by_player_id":1269,"followers_count":4},{"shots_count":16,"twitter_screen_name":"addisonkowalski","avatar_url":"http://dribbble.com/system/users/1086/avatars/thumb/l_f30a844bf698403cb7beeeaf4a80b2bc.jpg?1268922192","name":"Addison Kowalski","created_at":"2010/03/18 10:22:34 -0400","location":"San Francisco, California","following_count":20,"url":"http://dribbble.com/players/addison","draftees_count":3,"id":1086,"drafted_by_player_id":831,"followers_count":41},{"shots_count":1,"twitter_screen_name":"julie_cha","avatar_url":"http://dribbble.com/system/users/4095/avatars/thumb/145418_large_3.jpg?1281630758","name":"Julie Chabin","created_at":"2010/08/12 11:56:56 -0400","location":"Paris, France","following_count":6,"url":"http://dribbble.com/players/sys","draftees_count":0,"id":4095,"drafted_by_player_id":2082,"followers_count":2},{"shots_count":2,"twitter_screen_name":"jasonr44240","avatar_url":"http://dribbble.com/system/users/4089/avatars/thumb/jason_richardson.jpg?1281623362","name":"Jason Richardson","created_at":"2010/08/12 09:54:55 -0400","location":"Kent, Ohio","following_count":5,"url":"http://dribbble.com/players/jasonr44240","draftees_count":0,"id":4089,"drafted_by_player_id":466,"followers_count":3},{"shots_count":21,"twitter_screen_name":"LukeRitchie","avatar_url":"http://dribbble.com/system/users/4005/avatars/thumb/twitter_pic.jpg?1281445137","name":"Luke Ritchie","created_at":"2010/08/08 08:04:58 -0400","location":"stellenbosch south africa","following_count":35,"url":"http://dribbble.com/players/Luke","draftees_count":0,"id":4005,"drafted_by_player_id":99,"followers_count":8},{"shots_count":6,"twitter_screen_name":"traxor","avatar_url":"http://dribbble.com/system/users/3754/avatars/thumb/Luke_Jones.jpeg?1280397543","name":"Luke Jones","created_at":"2010/07/29 05:54:50 -0400","location":"Birmingham, UK","following_count":9,"url":"http://dribbble.com/players/traxor","draftees_count":0,"id":3754,"drafted_by_player_id":1528,"followers_count":4},{"shots_count":22,"twitter_screen_name":"http://twitter.com/WeaslyGrizzly","avatar_url":"http://dribbble.com/system/users/3832/avatars/thumb/12019358.jpg?1280563060","name":"Weasly Grizzly","created_at":"2010/07/31 03:48:32 -0400","location":"Russia, Saint-Petersburg","following_count":5,"url":"http://dribbble.com/players/WeaslyGrizzly","draftees_count":0,"id":3832,"drafted_by_player_id":3093,"followers_count":40},{"shots_count":1,"twitter_screen_name":"harrylove","avatar_url":"http://dribbble.com/system/users/4084/avatars/thumb/harry.jpg?1281567386","name":"Harry Love","created_at":"2010/08/11 18:42:25 -0400","location":"Seattle, WA","following_count":25,"url":"http://dribbble.com/players/harrylove","draftees_count":0,"id":4084,"drafted_by_player_id":81,"followers_count":5},{"shots_count":2,"twitter_screen_name":"jamesbuckley","avatar_url":"http://dribbble.com/system/users/3862/avatars/thumb/Me1.jpg?1280790448","name":"James Buckley","created_at":"2010/08/02 12:23:55 -0400","location":"Wandering Currently","following_count":33,"url":"http://dribbble.com/players/jamesbuckley","draftees_count":0,"id":3862,"drafted_by_player_id":473,"followers_count":7},{"shots_count":9,"twitter_screen_name":"thisisrobv","avatar_url":"http://dribbble.com/system/users/1277/avatars/thumb/l_28ad0ead3eb84537bf1e36f18ffbebf6.JPG?1269353110","name":"Robert Velasquez","created_at":"2010/03/18 14:11:48 -0400","location":"San Antonio, TX","following_count":55,"url":"http://dribbble.com/players/thisisrobv","draftees_count":1,"id":1277,"drafted_by_player_id":336,"followers_count":7},{"shots_count":1,"twitter_screen_name":"http://ncrow.deviantart.com/","avatar_url":"http://dribbble.com/system/users/4048/avatars/thumb/ava_88x88.png?1281513397","name":"Nikolay Verin","created_at":"2010/08/10 08:22:59 -0400","location":"Russia Tver","following_count":11,"url":"http://dribbble.com/players/nikolayverin","draftees_count":0,"id":4048,"drafted_by_player_id":1992,"followers_count":7},{"shots_count":2,"twitter_screen_name":"Paul_Johnson","avatar_url":"http://dribbble.com/system/users/4022/avatars/thumb/Profile-Picture.jpg?1281313585","name":"Paul Johnson","created_at":"2010/08/08 20:20:55 -0400","location":"Greenville SC","following_count":26,"url":"http://dribbble.com/players/pauljohnson","draftees_count":0,"id":4022,"drafted_by_player_id":1131,"followers_count":8},{"shots_count":0,"twitter_screen_name":"flixic","avatar_url":"http://dribbble.com/images/avatar-default.gif","name":"Jonas Lekevicius","created_at":"2010/08/11 10:44:00 -0400","location":"Aarhus, Denmark","following_count":32,"url":"http://dribbble.com/players/flixic","draftees_count":0,"id":4069,"drafted_by_player_id":1214,"followers_count":1},{"shots_count":21,"twitter_screen_name":"stanton","avatar_url":"http://dribbble.com/system/users/826/avatars/thumb/headshot.jpg?1264763961","name":"Paul Stanton","created_at":"2010/01/29 06:14:20 -0500","location":"Leeds, UK","following_count":74,"url":"http://dribbble.com/players/stanton","draftees_count":5,"id":826,"drafted_by_player_id":37,"followers_count":72},{"shots_count":7,"twitter_screen_name":"andrioabero","avatar_url":"http://dribbble.com/system/users/3653/avatars/thumb/andrio-logo.png?1280364271","name":"Andrio Abero","created_at":"2010/07/27 13:40:31 -0400","location":"Brooklyn, NY","following_count":19,"url":"http://dribbble.com/players/andrioabero","draftees_count":0,"id":3653,"drafted_by_player_id":472,"followers_count":19},{"shots_count":0,"twitter_screen_name":"budesigns","avatar_url":"http://dribbble.com/system/users/4071/avatars/thumb/AmericanMustache2.jpg?1281548955","name":"Ben Ullman","created_at":"2010/08/11 12:09:44 -0400","location":"Charlotte, NC","following_count":22,"url":"http://dribbble.com/players/budesigns","draftees_count":0,"id":4071,"drafted_by_player_id":1037,"followers_count":2},{"shots_count":1,"twitter_screen_name":"Designer023","avatar_url":"http://dribbble.com/system/users/3597/avatars/thumb/avatar.jpg?1281362430","name":"Carl","created_at":"2010/07/27 06:45:03 -0400","location":"Chester","following_count":22,"url":"http://dribbble.com/players/Designer023","draftees_count":0,"id":3597,"drafted_by_player_id":1061,"followers_count":7},{"shots_count":23,"twitter_screen_name":"BRINKERHOFF","avatar_url":"http://dribbble.com/system/users/2693/avatars/thumb/4471619227_917f8dbc02_o.jpg?1275667035","name":"Ryan Brinkerhoff","created_at":"2010/06/04 11:34:09 -0400","location":"columbus, oh","following_count":37,"url":"http://dribbble.com/players/bandito_design_co","draftees_count":1,"id":2693,"drafted_by_player_id":1817,"followers_count":77},{"shots_count":1,"twitter_screen_name":"davidpcrawford","avatar_url":"http://dribbble.com/system/users/4060/avatars/thumb/Sparky_80x80_dpc.jpg?1281494278","name":"David Crawford","created_at":"2010/08/10 22:21:59 -0400","location":"Pittsburgh, PA","following_count":26,"url":"http://dribbble.com/players/dpc","draftees_count":0,"id":4060,"drafted_by_player_id":705,"followers_count":7},{"shots_count":1,"twitter_screen_name":"pixelnourish","avatar_url":"http://dribbble.com/system/users/4058/avatars/thumb/manga.jpg?1281486465","name":"Kate Payton","created_at":"2010/08/10 19:49:49 -0400","location":"Melbourne, Australia","following_count":42,"url":"http://dribbble.com/players/pixelnourish","draftees_count":0,"id":4058,"drafted_by_player_id":2675,"followers_count":4},{"shots_count":3,"twitter_screen_name":"pijornification","avatar_url":"http://dribbble.com/system/users/3039/avatars/thumb/4550_651664093026_25500038_37623203_2462609_n.jpg?1280353970","name":"David Pijor","created_at":"2010/06/12 19:32:23 -0400","location":"Richmond, VA","following_count":10,"url":"http://dribbble.com/players/pijornification","draftees_count":0,"id":3039,"drafted_by_player_id":1076,"followers_count":3},{"shots_count":2,"twitter_screen_name":"jarodl","avatar_url":"http://dribbble.com/system/users/4056/avatars/thumb/Photo_on_2010-07-10_at_17.33.jpg?1281468809","name":"Jarod Luebbert","created_at":"2010/08/10 15:32:08 -0400","location":"San Francisco, CA","following_count":10,"url":"http://dribbble.com/players/jarodl","draftees_count":0,"id":4056,"drafted_by_player_id":2303,"followers_count":2},{"shots_count":3,"twitter_screen_name":"playoutpt","avatar_url":"http://dribbble.com/system/users/2268/avatars/thumb/plt.png?1281461496","name":"Tiago Machado","created_at":"2010/06/02 12:03:09 -0400","location":"Lisbon","following_count":37,"url":"http://dribbble.com/players/playout","draftees_count":0,"id":2268,"drafted_by_player_id":614,"followers_count":3},{"shots_count":2,"twitter_screen_name":"justcreative","avatar_url":"http://dribbble.com/system/users/3652/avatars/thumb/jacob-cass.jpg?1280252655","name":"Jacob Cass","created_at":"2010/07/27 13:40:16 -0400","location":"New York","following_count":11,"url":"http://dribbble.com/players/justcreative","draftees_count":0,"id":3652,"drafted_by_player_id":2069,"followers_count":46},{"shots_count":7,"twitter_screen_name":"versamo","avatar_url":"http://dribbble.com/system/users/3608/avatars/thumb/24738_626422287795_24409505_35823120_3871060_n.jpg?1280236374","name":"Luke Alessi","created_at":"2010/07/27 09:08:04 -0400","location":"Rochester, NY","following_count":37,"url":"http://dribbble.com/players/LukeAlessi","draftees_count":0,"id":3608,"drafted_by_player_id":590,"followers_count":11},{"shots_count":1,"twitter_screen_name":"mauriz","avatar_url":"http://dribbble.com/images/avatar-default.gif","name":"Maurice Svay","created_at":"2010/08/10 11:23:52 -0400","location":"Paris, France","following_count":15,"url":"http://dribbble.com/players/mauricesvay","draftees_count":0,"id":4051,"drafted_by_player_id":1053,"followers_count":2},{"shots_count":1,"twitter_screen_name":"ephfx","avatar_url":"http://dribbble.com/system/users/4031/avatars/thumb/ephfx.150.jpg?1281391246","name":"Philippe Mignotte","created_at":"2010/08/09 12:54:35 -0400","location":"France","following_count":28,"url":"http://dribbble.com/players/ephfx","draftees_count":0,"id":4031,"drafted_by_player_id":1053,"followers_count":74},{"shots_count":1,"twitter_screen_name":"kamlesh_munot","avatar_url":"http://dribbble.com/system/users/4023/avatars/thumb/mee.jpg?1281328789","name":"Kamlesh Munot","created_at":"2010/08/08 22:38:17 -0400","location":"India","following_count":28,"url":"http://dribbble.com/players/kamlesh","draftees_count":0,"id":4023,"drafted_by_player_id":1994,"followers_count":7}],"total":2117,"pages":71,"page":1,"per_page":30}