{"players":[{"shots_count":10,"twitter_screen_name":"prettyuglydsgn","avatar_url":"http://dribbble.com/system/users/3902/avatars/thumb/41653_758886023_160_n.jpg?1280856614","name":"Ben Didier","created_at":"2010/08/03 13:25:13 -0400","location":"Vancouver","following_count":5,"url":"http://dribbble.com/players/prettyuglydesign","draftees_count":0,"id":3902,"drafted_by_player_id":1,"followers_count":6},{"shots_count":0,"twitter_screen_name":"lukew","avatar_url":"http://dribbble.com/system/users/3818/avatars/thumb/lukew_plain100x100.png?1280512717","name":"LukeW","created_at":"2010/07/30 13:56:56 -0400","location":"Silicon Valley, CA","following_count":1,"url":"http://dribbble.com/players/lukew","draftees_count":0,"id":3818,"drafted_by_player_id":1,"followers_count":2},{"shots_count":0,"twitter_screen_name":"jazer","avatar_url":"http://dribbble.com/system/users/2984/avatars/thumb/me-square.jpg?1276200669","name":"John Zeratsky","created_at":"2010/06/10 16:01:53 -0400","location":"San Francisco","following_count":6,"url":"http://dribbble.com/players/jazer","draftees_count":0,"id":2984,"drafted_by_player_id":1,"followers_count":3},{"shots_count":8,"twitter_screen_name":"ryancarson","avatar_url":"http://dribbble.com/system/users/2113/avatars/thumb/ryan-head_bigger_bigger.jpg?1274653630","name":"Ryan Carson","created_at":"2010/05/23 18:22:59 -0400","location":"Bath, UK","following_count":39,"url":"http://dribbble.com/players/ryancarson","draftees_count":1,"id":2113,"drafted_by_player_id":1,"followers_count":200},{"shots_count":2,"twitter_screen_name":"BGramer","avatar_url":"http://dribbble.com/images/avatar-default.gif","name":"Brendan Gramer","created_at":"2010/05/14 11:30:36 -0400","location":"Seattle, WA","following_count":24,"url":"http://dribbble.com/players/bgramer","draftees_count":0,"id":2090,"drafted_by_player_id":1,"followers_count":3},{"shots_count":8,"twitter_screen_name":"TadCarpenter","avatar_url":"http://dribbble.com/system/users/2060/avatars/thumb/tadcarpenter.png?1273165269","name":"Tad Carpenter","created_at":"2010/05/06 12:52:11 -0400","location":"Kansas Ciy, Missouri ","following_count":28,"url":"http://dribbble.com/players/TadCarpenter","draftees_count":0,"id":2060,"drafted_by_player_id":1,"followers_count":94},{"shots_count":8,"twitter_screen_name":null,"avatar_url":"http://dribbble.com/system/users/2050/avatars/thumb/MarkWyner3.jpg?1272997230","name":"Mark Wyner","created_at":"2010/05/04 14:06:23 -0400","location":"Portland, OR","following_count":7,"url":"http://dribbble.com/players/markwyner","draftees_count":0,"id":2050,"drafted_by_player_id":1,"followers_count":16},{"shots_count":9,"twitter_screen_name":"mikeyburton","avatar_url":"http://dribbble.com/system/users/2046/avatars/thumb/16147_203231429011_604494011_4049481_7951041_n.jpg?1272937807","name":"Mikey Burton","created_at":"2010/05/03 21:40:00 -0400","location":"Philadelphia, PA","following_count":29,"url":"http://dribbble.com/players/mikeyburton","draftees_count":2,"id":2046,"drafted_by_player_id":1,"followers_count":111},{"shots_count":7,"twitter_screen_name":"IconBlock","avatar_url":"http://dribbble.com/system/users/1992/avatars/thumb/blockhead.jpg?1271773046","name":"The IconBlock Ltd.","created_at":"2010/04/20 10:14:04 -0400","location":"NewYork","following_count":28,"url":"http://dribbble.com/players/IconBlock","draftees_count":1,"id":1992,"drafted_by_player_id":1,"followers_count":93},{"shots_count":0,"twitter_screen_name":"danoliver","avatar_url":"http://dribbble.com/system/users/1937/avatars/thumb/dan_goggles.jpg?1271197002","name":"Dan Oliver","created_at":"2010/04/13 18:12:43 -0400","location":null,"following_count":0,"url":"http://dribbble.com/players/danoliver","draftees_count":0,"id":1937,"drafted_by_player_id":1,"followers_count":10},{"shots_count":5,"twitter_screen_name":"fontfabric","avatar_url":"http://dribbble.com/system/users/1935/avatars/thumb/avatar-sve.png?1271351933","name":"Svetoslav Simov","created_at":"2010/04/13 16:28:00 -0400","location":"Sofia","following_count":41,"url":"http://dribbble.com/players/fontfabric","draftees_count":0,"id":1935,"drafted_by_player_id":1,"followers_count":34},{"shots_count":4,"twitter_screen_name":"@coppermanland","avatar_url":"http://dribbble.com/system/users/1915/avatars/thumb/brian.gif?1271923225","name":"Brian Copperman","created_at":"2010/04/12 12:25:37 -0400","location":"San Diego","following_count":57,"url":"http://dribbble.com/players/coppermanland","draftees_count":0,"id":1915,"drafted_by_player_id":1,"followers_count":2},{"shots_count":2,"twitter_screen_name":"phae","avatar_url":"http://dribbble.com/system/users/1894/avatars/thumb/4915315.jpg?1270830086","name":"Frances Berriman","created_at":"2010/04/09 12:20:20 -0400","location":"London, UK","following_count":8,"url":"http://dribbble.com/players/phae","draftees_count":2,"id":1894,"drafted_by_player_id":1,"followers_count":8},{"shots_count":0,"twitter_screen_name":"sixfoot6","avatar_url":"http://dribbble.com/system/users/1865/avatars/thumb/mustache.jpg?1270672755","name":"Ryan Gantz","created_at":"2010/04/07 16:36:30 -0400","location":"Washington, DC","following_count":7,"url":"http://dribbble.com/players/sixfoot6","draftees_count":0,"id":1865,"drafted_by_player_id":1,"followers_count":2},{"shots_count":4,"twitter_screen_name":"meyerweb","avatar_url":"http://dribbble.com/system/users/1814/avatars/thumb/halo2emblem.jpeg?1270507854","name":"Eric Meyer","created_at":"2010/04/05 18:35:32 -0400","location":"my head","following_count":19,"url":"http://dribbble.com/players/meyerweb","draftees_count":0,"id":1814,"drafted_by_player_id":1,"followers_count":36},{"shots_count":8,"twitter_screen_name":"presentday","avatar_url":"http://dribbble.com/system/users/1773/avatars/thumb/Mr.jpeg?1270319220","name":"Piotr","created_at":"2010/04/03 12:46:31 -0400","location":"Florence","following_count":12,"url":"http://dribbble.com/players/presentday","draftees_count":0,"id":1773,"drafted_by_player_id":1,"followers_count":13},{"shots_count":0,"twitter_screen_name":"pmaiorana","avatar_url":"http://dribbble.com/system/users/1730/avatars/thumb/IMG_2472.jpg?1274365342","name":"Paul Maiorana","created_at":"2010/03/29 16:16:33 -0400","location":"Brooklyn, NY","following_count":17,"url":"http://dribbble.com/players/pmaiorana","draftees_count":0,"id":1730,"drafted_by_player_id":1,"followers_count":2},{"shots_count":4,"twitter_screen_name":"Jathu","avatar_url":"http://dribbble.com/system/users/1709/avatars/thumb/43462097_N06.jpg.jpeg?1269741710","name":"Jathu Satkunarajah","created_at":"2010/03/27 22:00:46 -0400","location":"Toronto, Canada","following_count":23,"url":"http://dribbble.com/players/Jathu","draftees_count":2,"id":1709,"drafted_by_player_id":1,"followers_count":30},{"shots_count":4,"twitter_screen_name":"k","avatar_url":"http://dribbble.com/system/users/1472/avatars/thumb/kc_gradient_160.jpg?1269036027","name":"Kevin Cheng","created_at":"2010/03/19 17:58:47 -0400","location":"San Francisco, CA","following_count":45,"url":"http://dribbble.com/players/kevnull","draftees_count":0,"id":1472,"drafted_by_player_id":1,"followers_count":18},{"shots_count":15,"twitter_screen_name":"Larkef","avatar_url":"http://dribbble.com/system/users/1019/avatars/thumb/Screen_shot_2010-03-11_at_22.13.47.png?1268331262","name":"Jord Riekwel","created_at":"2010/03/11 10:51:46 -0500","location":"Rotterdam","following_count":137,"url":"http://dribbble.com/players/Larkef","draftees_count":5,"id":1019,"drafted_by_player_id":1,"followers_count":108},{"shots_count":2,"twitter_screen_name":"jasperhauser","avatar_url":"http://dribbble.com/system/users/1018/avatars/thumb/jasper_reference.jpg?1268321571","name":"Jasper Hauser","created_at":"2010/03/11 10:23:45 -0500","location":"Amsterdam","following_count":21,"url":"http://dribbble.com/players/jasperhauser","draftees_count":0,"id":1018,"drafted_by_player_id":1,"followers_count":66},{"shots_count":4,"twitter_screen_name":"teleject","avatar_url":"http://dribbble.com/system/users/1013/avatars/thumb/120x120_illus_digg.gif?1268255769","name":"Christopher Schmitt","created_at":"2010/03/10 16:12:04 -0500","location":"Austin, TX","following_count":52,"url":"http://dribbble.com/players/teleject","draftees_count":1,"id":1013,"drafted_by_player_id":1,"followers_count":17},{"shots_count":0,"twitter_screen_name":"garyvee","avatar_url":"http://dribbble.com/system/users/1009/avatars/thumb/Photo_2.jpg?1268224509","name":"Gary Vaynerchuk","created_at":"2010/03/10 07:33:29 -0500","location":"NYC","following_count":5,"url":"http://dribbble.com/players/garyvee","draftees_count":0,"id":1009,"drafted_by_player_id":1,"followers_count":17},{"shots_count":4,"twitter_screen_name":"dustinwalker","avatar_url":"http://dribbble.com/images/avatar-default.gif","name":"Dustin Walker","created_at":"2010/03/08 07:02:29 -0500","location":"Raleigh, NC","following_count":16,"url":"http://dribbble.com/players/dustinwalker","draftees_count":2,"id":990,"drafted_by_player_id":1,"followers_count":3},{"shots_count":15,"twitter_screen_name":"http://twitter.com/bastianallgeier","avatar_url":"http://dribbble.com/system/users/987/avatars/thumb/bastian.jpg?1267900809","name":"Bastian Allgeier","created_at":"2010/03/06 13:38:17 -0500","location":"Mannheim, Germany","following_count":72,"url":"http://dribbble.com/players/bastianallgeier","draftees_count":4,"id":987,"drafted_by_player_id":1,"followers_count":75},{"shots_count":2,"twitter_screen_name":"cadler","avatar_url":"http://dribbble.com/system/users/981/avatars/thumb/cadler.jpg?1269280624","name":"Charles Adler","created_at":"2010/03/03 14:29:13 -0500","location":"Chicago","following_count":132,"url":"http://dribbble.com/players/cadler","draftees_count":0,"id":981,"drafted_by_player_id":1,"followers_count":23},{"shots_count":5,"twitter_screen_name":"troygilbert","avatar_url":"http://dribbble.com/system/users/960/avatars/thumb/technicolor-troy.png?1267493580","name":"Troy Gilbert","created_at":"2010/03/01 13:03:43 -0500","location":"Austin","following_count":32,"url":"http://dribbble.com/players/troygilbert","draftees_count":1,"id":960,"drafted_by_player_id":1,"followers_count":5},{"shots_count":8,"twitter_screen_name":"mattdavey","avatar_url":"http://dribbble.com/system/users/958/avatars/thumb/DSC_0083.png?1267458990","name":"Matt Davey","created_at":"2010/03/01 10:50:11 -0500","location":"Suffolk, UK","following_count":99,"url":"http://dribbble.com/players/mattdavey","draftees_count":2,"id":958,"drafted_by_player_id":1,"followers_count":29},{"shots_count":7,"twitter_screen_name":"decadent77","avatar_url":"http://dribbble.com/system/users/950/avatars/thumb/anthonydines.jpg?1267190237","name":"Anthony Dines","created_at":"2010/02/25 12:20:06 -0500","location":"Brooklyn, NY","following_count":32,"url":"http://dribbble.com/players/anthonydines","draftees_count":0,"id":950,"drafted_by_player_id":1,"followers_count":11},{"shots_count":0,"twitter_screen_name":null,"avatar_url":"http://dribbble.com/images/avatar-default.gif","name":"Keith Butters","created_at":"2010/02/25 12:17:10 -0500","location":null,"following_count":2,"url":"http://dribbble.com/players/keithters","draftees_count":0,"id":949,"drafted_by_player_id":1,"followers_count":2}],"total":103,"pages":4,"page":1,"per_page":30}